<define-tag pagetitle>DLA-1315-1 libvirt</define-tag>
<define-tag report_date>2018-3-24</define-tag>
<define-tag secrefs>CVE-2018-1064 CVE-2018-5748 Bug#887700</define-tag>
<define-tag packages>libvirt</define-tag>
<define-tag isvulnerable>yes</define-tag>
<define-tag fixed>yes</define-tag>
<define-tag fixed-section>no</define-tag>

#use wml::debian::security

