<define-tag pagetitle>DSA-4412-1 drupal7</define-tag>
<define-tag report_date>2019-3-20</define-tag>
<define-tag secrefs>not yet available</define-tag>
<define-tag packages>drupal7</define-tag>
<define-tag isvulnerable>yes</define-tag>
<define-tag fixed>yes</define-tag>
<define-tag fixed-section>no</define-tag>

#use wml::debian::security



</dl>
