<define-tag pagetitle>DLA-566-1 cakephp</define-tag>
<define-tag report_date>2016-7-28</define-tag>
<define-tag secrefs>Bug#832283</define-tag>
<define-tag packages>cakephp</define-tag>
<define-tag isvulnerable>yes</define-tag>
<define-tag fixed>yes</define-tag>
<define-tag fixed-section>no</define-tag>

#use wml::debian::security

